<svg width="190" height="64" viewBox="0 0 190 64" fill="none" xmlns="http://www.w3.org/2000/svg">
<g clip-path="url(#clip0)">
<path d="M97.0838 22.772C97.3505 21.8508 97.8839 21.0612 98.5174 20.3375C100.551 18.0346 102.852 16.2581 106.219 16.3568C108.353 16.4226 110.487 16.6529 112.554 17.2121C118.955 18.857 124.723 21.8179 130.357 25.1736C132.191 26.2592 132.925 27.4107 132.858 29.6477C132.591 39.0567 132.558 48.4657 132.424 57.8746C132.424 58.7629 132.391 59.6511 132.358 60.5394C132.358 60.7039 132.424 60.9013 132.258 61C132.058 61.1316 131.891 60.9342 131.758 60.8355C130.457 59.9472 129.19 59.0261 128.09 57.9075C124.956 54.7822 121.122 52.8083 117.088 51.0975C113.854 49.7487 110.487 48.7289 106.953 48.5973C105.352 48.5315 103.752 48.696 102.252 49.2881C99.7843 50.2422 98.3841 52.1503 97.6839 54.5848C97.5839 54.9138 97.5172 55.3085 97.3505 55.6046C97.0838 56.0981 96.9171 55.8349 96.8171 55.473C96.5837 54.0584 96.517 52.6767 96.517 51.2291C96.6504 52.0516 96.7837 52.8412 96.8837 53.6636C97.0171 53.3017 97.0171 52.9399 97.0171 52.578C96.9838 43.0374 96.9838 33.464 96.9504 23.9234C96.9504 23.5286 96.9171 23.1338 97.0838 22.772ZM121.556 32.6415C121.556 32.6744 121.589 32.6744 121.589 32.7073C121.956 37.017 122.789 41.2609 123.356 45.5706C123.423 46.0641 123.556 46.3602 124.189 46.3273C125.756 46.2944 127.357 46.2944 128.924 46.3273C129.591 46.3602 129.657 46.097 129.557 45.5377C129.324 44.3534 129.124 43.1361 128.924 41.9518C127.99 36.3919 127.023 30.7992 126.09 25.2394C126.023 24.7459 125.823 24.6143 125.356 24.6143C123.623 24.6472 121.856 24.6472 120.122 24.6143C119.622 24.6143 119.388 24.7459 119.222 25.2394C118.555 27.4106 117.821 29.5491 117.088 31.7204C116.421 33.8259 115.754 35.8985 115.054 38.004C114.988 37.9711 114.954 37.9711 114.954 37.9711C113.587 33.7272 112.22 29.4833 110.853 25.2394C110.753 24.9104 110.72 24.6143 110.22 24.6143C108.319 24.6472 106.452 24.6143 104.552 24.6143C104.219 24.6143 104.085 24.713 104.019 25.0749C102.852 31.9177 101.685 38.7935 100.484 45.6364C100.384 46.2286 100.585 46.3273 101.151 46.3273C102.685 46.2944 104.252 46.2944 105.786 46.3273C106.419 46.3602 106.619 46.097 106.686 45.5377C106.919 43.8928 107.153 42.2479 107.419 40.6029C107.819 38.004 108.219 35.405 108.486 32.7402C109.886 37.0828 111.287 41.3596 112.62 45.6693C112.787 46.1628 112.987 46.3273 113.487 46.2944C114.487 46.2615 115.521 46.2615 116.521 46.2944C117.055 46.3273 117.321 46.1299 117.455 45.6035C118.788 41.2938 120.322 37.017 121.556 32.6415Z" fill="#4D7DA3"/>
<path d="M96.4837 51.2292C96.4503 52.6438 96.5503 54.0584 96.7837 55.4731C96.2503 55.5718 96.3836 55.0783 96.317 54.848C95.7835 52.9728 95.4168 51.0647 94.75 49.2552C94.2165 47.7419 93.5497 46.2615 92.6495 44.9126C90.7825 42.1821 88.3486 41.1951 85.0813 41.8531C84.3811 41.9847 83.7143 42.1492 83.0142 42.2479C82.0807 42.3795 81.6139 41.9847 81.6139 41.0635C81.6139 37.7737 81.6806 34.4509 81.7139 31.1611C81.7473 28.924 81.7473 26.654 81.7473 24.4169C81.7473 19.186 81.7139 13.9881 81.7139 8.75723C81.7139 7.57288 81.6139 6.38854 81.6139 5.1713C81.6139 3.26318 82.5474 2.73681 84.2811 3.59217C85.4814 4.18434 86.4482 5.0726 87.4151 5.96086C87.8485 6.35564 88.2819 6.75042 88.682 7.1781C88.9154 9.2836 88.7821 11.3891 88.8154 13.4946C88.8821 19.9756 88.8487 26.4895 88.8821 32.9705C88.8821 33.2008 88.7154 33.5298 89.0154 33.6285C89.9156 34.0233 90.3157 34.8457 90.7491 35.5695C93.5831 40.4056 95.4501 45.6693 96.4837 51.2292Z" fill="#221E1F"/>
<path d="M15 34.8457C15 30.9308 15 27.0159 15 23.101C15 22.5417 15.1334 22.3443 15.7335 22.3443C19.701 22.3772 23.6685 22.3443 27.636 22.3772C31.6701 22.4101 34.3707 24.5156 35.2042 28.2989C36.1377 32.5099 34.0706 37.2802 29.1363 38.2014C27.636 38.4974 26.1023 38.3988 24.602 38.3988C23.5018 38.3988 22.4015 38.4316 21.3013 38.3988C20.7345 38.3659 20.6012 38.5632 20.6012 39.0896C20.6345 41.6557 20.6012 44.1889 20.6345 46.755C20.6345 47.3142 20.5011 47.4787 19.9344 47.4458C18.5341 47.4129 17.1338 47.4129 15.7001 47.4458C15.1334 47.4787 15 47.3142 15 46.755C15.0333 42.8071 15 38.8264 15 34.8457ZM23.7018 34.0562C24.702 34.0233 25.8689 34.122 27.0025 33.9246C28.8029 33.6285 29.8031 32.3783 29.8698 30.3715C29.9031 28.4634 29.1029 27.312 27.2692 26.9501C25.2021 26.5224 23.135 26.7198 21.0679 26.654C20.6678 26.654 20.6012 26.8514 20.6012 27.1804C20.6012 29.2859 20.6012 31.3914 20.6012 33.4969C20.6012 33.9575 20.8012 34.0562 21.2013 34.0562C21.9681 34.0233 22.7683 34.0562 23.7018 34.0562Z" fill="#4D7CA3"/>
<path d="M169.866 45.439C168.865 46.4589 167.798 47.2484 166.465 47.6103C161.897 48.8934 157.796 46.7879 156.329 42.2808C155.263 39.0238 155.263 35.7669 156.763 32.6415C159.197 27.5752 165.765 27.3778 168.499 29.9109C168.899 30.2728 169.299 30.6018 169.699 30.9637C169.832 30.8321 169.732 30.5689 169.732 30.3386C169.732 27.9041 169.766 25.4368 169.732 23.0023C169.732 22.4759 169.866 22.3443 170.399 22.3443C171.733 22.3772 173.033 22.3772 174.367 22.3443C174.833 22.3443 175 22.443 175 22.9365C175 30.8979 175 38.8593 175 46.8208C175 47.3142 174.833 47.4129 174.367 47.4129C173.066 47.38 171.766 47.38 170.499 47.4129C169.966 47.4129 169.799 47.3142 169.866 46.7879C169.899 46.3602 169.866 45.8996 169.866 45.439ZM169.932 38.2014C169.966 37.675 169.866 36.9512 169.699 36.1946C169.232 34.0562 167.932 32.806 165.998 32.6415C163.931 32.4441 162.331 33.2995 161.597 35.1418C160.764 37.3131 160.764 39.4844 161.764 41.5899C163.131 44.4192 166.998 44.7153 168.865 42.1821C169.732 41.0635 169.966 39.7805 169.932 38.2014Z" fill="#4D7CA3"/>
<path d="M65.0438 45.2416C65.0104 45.5048 64.9771 45.5706 64.9771 45.6693C64.9437 47.4458 64.9437 47.4458 63.1767 47.4458C62.3099 47.4458 61.443 47.4129 60.5762 47.4458C59.9427 47.4787 59.8427 47.2484 59.8427 46.6892C59.876 42.2479 59.8427 37.8066 59.876 33.3653C59.876 29.9438 59.9094 26.5224 59.876 23.1339C59.876 22.4759 60.0761 22.3443 60.6762 22.3443C61.8764 22.3772 63.11 22.3772 64.3103 22.3114C64.9104 22.2785 65.0771 22.443 65.0771 23.0681C65.0438 25.6999 65.0771 28.3318 65.0771 30.9308C65.2438 31.0295 65.3105 30.9637 65.3772 30.865C67.911 27.2133 74.5457 27.5422 77.2463 31.4901C78.8133 33.793 79.2134 36.359 79.0133 39.0238C78.8466 41.228 78.2798 43.3335 76.8462 45.1429C74.379 48.2354 69.278 48.8934 66.244 46.4918C65.8106 46.1957 65.4438 45.8009 65.0438 45.2416ZM73.6455 38.1356C73.6789 37.1815 73.5122 36.1945 73.1454 35.2734C72.5453 33.7601 71.4451 32.806 69.7781 32.6415C68.1444 32.477 66.6441 32.9047 65.8106 34.418C64.577 36.7538 64.4436 39.1883 65.5439 41.6228C66.2774 43.2348 67.711 43.8928 69.4447 43.8928C71.145 43.8599 72.2786 43.0045 72.9787 41.4912C73.4455 40.4384 73.6789 39.3199 73.6455 38.1356Z" fill="#4D7CA3"/>
<path d="M96.4837 51.2292C95.4834 45.6693 93.6164 40.4056 90.7158 35.5366C90.2824 34.7799 89.8823 33.9575 88.9821 33.5956C88.682 33.464 88.8487 33.1679 88.8487 32.9376C88.8154 26.4566 88.8487 19.9427 88.782 13.4617C88.7487 11.3562 88.8821 9.25071 88.6487 7.1452C88.682 5.99376 88.7487 4.84231 88.8154 3.69086C88.8154 3.46057 88.682 3.13159 88.9821 3.03289C89.2488 2.9342 89.3822 3.29608 89.5155 3.46057C92.0494 6.61883 94.1498 10.0074 95.5835 13.7578C96.5837 16.3897 96.9838 19.0873 96.9504 21.8837C96.9504 22.1798 96.8504 22.5088 97.0838 22.772C96.9171 23.1339 96.9504 23.5286 96.9504 23.9234C96.9838 33.464 96.9838 43.0374 97.0171 52.578C97.0171 52.9399 97.0171 53.3018 96.8837 53.6636C96.717 52.8412 96.617 52.0187 96.4837 51.2292Z" fill="#A7A8AC"/>
<path d="M146.427 39.4515C144.394 39.4515 142.36 39.4844 140.359 39.4515C139.726 39.4515 139.593 39.6489 139.693 40.2411C140.093 43.3006 143.393 45.0113 146.161 43.5309C146.527 43.3335 146.961 43.1361 147.128 42.7413C147.461 41.9189 148.094 41.886 148.795 41.9189C149.961 41.9518 151.095 41.9518 152.262 41.9189C152.962 41.886 152.995 42.1163 152.762 42.6755C151.562 45.5706 149.295 47.1826 146.261 47.7419C144.294 48.1038 142.327 47.9722 140.426 47.4458C137.559 46.6563 135.692 44.8139 134.892 42.0176C133.991 38.9251 133.958 35.8327 135.425 32.8718C136.792 30.1412 139.126 28.7924 142.126 28.4634C143.693 28.2989 145.26 28.2989 146.827 28.7266C150.628 29.7465 152.462 32.4112 153.062 36.0959C153.195 37.017 153.195 37.9053 153.229 38.8264C153.262 39.3857 153.062 39.5173 152.529 39.5173C150.462 39.4515 148.461 39.4844 146.427 39.4515C146.427 39.4844 146.427 39.4844 146.427 39.4515ZM139.759 36.2603C142.227 36.2603 144.627 36.2603 147.061 36.2603C147.194 36.2603 147.328 36.2603 147.494 36.2603C147.861 36.2603 147.828 36.063 147.761 35.8327C147.494 34.6154 146.994 33.5627 145.861 32.9376C143.16 31.4243 140.293 32.9047 139.759 36.2603Z" fill="#4D7DA3"/>
<path d="M50.8075 44.814C48.9737 47.4458 46.5066 48.2025 43.706 47.8735C40.0385 47.4458 38.0381 45.2087 38.0048 41.557C37.9715 37.5434 38.0048 33.5627 38.0048 29.5491C38.0048 28.9898 38.1382 28.7595 38.7383 28.7924C40.0052 28.8253 41.2721 28.8253 42.5391 28.7924C43.1059 28.7595 43.2392 28.9898 43.2392 29.5162C43.2059 33.1679 43.2059 36.7867 43.2392 40.4385C43.2392 41.7544 43.5726 42.9058 44.9396 43.498C47.5735 44.6166 50.4407 42.8729 50.4741 40.0437C50.5407 36.5893 50.5074 33.1679 50.4741 29.7136C50.4741 28.9898 50.6408 28.7266 51.4076 28.7924C52.6412 28.8582 53.8748 28.8253 55.1084 28.7924C55.6085 28.7924 55.7418 28.9569 55.7418 29.4175C55.7418 35.2405 55.7418 41.0964 55.7418 46.9195C55.7418 47.38 55.5751 47.4787 55.1417 47.4458C53.8748 47.4129 52.6078 47.4129 51.3409 47.4458C50.9075 47.4458 50.7408 47.3471 50.7741 46.8866C50.8408 46.2944 50.8075 45.7022 50.8075 44.814Z" fill="#4D7DA3"/>
</g>
<rect x="0.5" y="0.5" width="189" height="63" rx="6.5" stroke="#4F81BC"/>
<defs>
<clipPath id="clip0">
<rect width="160" height="58" fill="white" transform="translate(15 3)"/>
</clipPath>
</defs>
</svg>
